{
	"info": {
		"name": "Customers",
		"_postman_id": "3fcd91e7-cc34-1efd-f462-f585907f0c22",
		"description": "",
		"schema": "https://schema.getpostman.com/json/collection/v2.1.0/collection.json"
	},
	"item": [
		{
			"name": "GetCustomers",
			"request": {
				"method": "GET",
				"header": [],
				"body": {},
				"url": {
					"raw": "http://localhost:3000/customers",
					"protocol": "http",
					"host": [
						"localhost"
					],
					"port": "3000",
					"path": [
						"customers"
					]
				},
				"description": ""
			},
			"response": []
		},
		{
			"name": "AddCustomer",
			"request": {
				"method": "POST",
				"header": [
					{
						"key": "Content-Type",
						"value": "application/json"
					}
				],
				"body": {
					"mode": "raw",
					"raw": "{\n  \"name\": \"Alvaro\",\n  \"surname\": \"Blazquez\",\n  \"email\": \"alvaro.blazquez@email.es\",\n  \"phone\": \"685939293\",\n  \"address\": \"c/Santo Domingo 23\"\n}"
				},
				"url": {
					"raw": "http://localhost:3000/customers",
					"protocol": "http",
					"host": [
						"localhost"
					],
					"port": "3000",
					"path": [
						"customers"
					]
				},
				"description": ""
			},
			"response": []
		},
		{
			"name": "GetCustomer",
			"request": {
				"method": "GET",
				"header": [],
				"body": {},
				"url": {
					"raw": "http://localhost:3000/customers/:id",
					"protocol": "http",
					"host": [
						"localhost"
					],
					"port": "3000",
					"path": [
						"customers",
						":id"
					],
					"variable": [
						{
							"key": "id",
							"value": "1"
						}
					]
				},
				"description": ""
			},
			"response": []
		},
		{
			"name": "UpdateCustomer",
			"request": {
				"method": "PUT",
				"header": [
					{
						"key": "Content-Type",
						"value": "application/json"
					}
				],
				"body": {
					"mode": "raw",
					"raw": "{\n\t\"name\": \"Alvaro\",\n\t\"surname\": \"Blazquez\",\n\t\"email\": \"alvaro.blazquez@email.es\",\n\t\"phone\": \"685939293\",\n\t\"address\": \"c/Santo Domingo 23\"\n}"
				},
				"url": {
					"raw": "http://localhost:3000/customers/:id",
					"protocol": "http",
					"host": [
						"localhost"
					],
					"port": "3000",
					"path": [
						"customers",
						":id"
					],
					"variable": [
						{
							"key": "id",
							"value": "2"
						}
					]
				},
				"description": ""
			},
			"response": []
		},
		{
			"name": "DeleteCustomer",
			"request": {
				"method": "DELETE",
				"header": [],
				"body": {},
				"url": {
					"raw": "http://localhost:3000/customers/:id",
					"protocol": "http",
					"host": [
						"localhost"
					],
					"port": "3000",
					"path": [
						"customers",
						":id"
					],
					"variable": [
						{
							"key": "id",
							"value": "2"
						}
					]
				},
				"description": ""
			},
			"response": []
		}
	]
}